Journey through R
…
<!-- *********** NEW SLIDE ************** -->
---
## descriptive summary statistics II - tidyverse universe

In the world of **tidyverse** we can apply even greater functions (! advanced): 

```r
dat_twins %>%
  group_by(IDZP) %>%
  summarise(M=mean(IQ), SD=sd(IQ), difference=diff(IQ)) %>%
  print(n=3)
```

```
## # A tibble: 10 × 4
##    IDZP     M    SD difference
##   <int> <dbl> <dbl>      <int>
## 1     1  92.5  4.95         -7
## 2     2  87    0             0
## 3     3 102    1.41          2
## # ℹ 7 more rows
```
…
